<?xml version="1.0" encoding="utf-8"?>
<!-- Generator: Adobe Illustrator 25.2.0, SVG Export Plug-In . SVG Version: 6.00 Build 0)  -->
<svg version="1.1" id="Calque_1" xmlns="http://www.w3.org/2000/svg" xmlns:xlink="http://www.w3.org/1999/xlink" x="0px" y="0px"
	 viewBox="0 0 259.3 93.6" style="enable-background:new 0 0 259.3 93.6;" xml:space="preserve">
<g>
	<g>
		<g>
			<path d="M34.5,41.7c-1.1,2.1-2.4,3.8-3.7,5c-3.1,3.1-6.5,4-9.5,4c-7.4,0-12.1-5.4-14.2-11.9l23.6-14c1.7-1,2.2-3.4,1-4.9
				c-2.5-3.1-8.1-4.5-12.7-4.5C6.5,15.4,0,24.5,0,33.5c0,11.4,8.8,18.3,19.9,18.3c4.2,0,8.4-1.4,11.5-4.4c1.5-1.4,2.8-3.3,3.8-5.5
				L34.5,41.7z M18.9,16.1c3.4,0,7.7,2,8,6.9c0.1,2-1,4-2.7,5L7.1,38.2C4.4,28.3,8,16.1,18.9,16.1z"/>
			<path d="M66.9,49.5c-0.1,0.1-0.2,0.2-0.4,0.3c-2.2,1.5-5.3,1.1-5.3-2.4V28.8c0-8.4-5.2-13.4-13.4-13.4c-6.6,0-13.1,3.5-13.1,8.1
				c0,3.5,6.2,3.5,6.2,0c0-4.8,2.9-7.4,7.6-7.4c4.3,0,10.6,2.9,10.6,7.7c0,12.5-29.5,5.5-29.4,18.7c0,1.7,0.5,3.1,1.3,4.3
				c0.2,0.2,0.3,0.5,0.5,0.7c2.6,3.1,7.6,4.4,12.5,4.4c4.5,0,9-1.3,11.2-3.2V49c0,4.6,9.2,2.8,11.6,1c0.1-0.1,0.2-0.2,0.3-0.3
				L66.9,49.5z M55.1,47.7c-2.9,2.4-6.4,3.3-9.8,3.3c-5.5,0-9-4.1-9-8.3c0-9.1,12.6-9.3,18.8-12.1V47.7z"/>
			<path d="M77.1,30.1c-5.7-2.7-11.3-4.5-11.3-8.8c0-6.6,15.9-7.9,15.9,2.3c0,3.4,6.2,3.5,6.2,0c0-10.1-25.1-12.1-25.1,0.8
				c0,5.8,6.2,8.8,12.5,11.7c6.2,2.7,12.3,5.2,12.3,9.6c0,4.2-6.9,5.4-9.8,5.4c-4.9,0-10-2.2-10-7.4c0-3.4-6.2-3.5-6.2,0
				c0,2.7,2,4.8,5,6.2c0.1,0,0.1,0.1,0.2,0.1c8.2,3.8,23.4,2.3,23.4-7.1C90.1,35.9,83.4,33.1,77.1,30.1z"/>
			<path d="M114.7,16.1v0.3c1.6,0,4.5,0.7,2.7,4.9l-9.8,22.6L95.7,20.6c-1.5-2.8-0.8-4.2,2.7-4.2v-0.3H83.2v0.3
				c3.4,0,4.2,1.3,5.7,4.2l15.5,30.7c-2.7,6.2-6.2,13.4-14,13.5c-4.1,0-7.8-2.3-7.8-7.3c0-3.4-6.2-3.5-6.2,0c0,5.2,6.7,8,12.9,8
				c2.5,0,5.5-0.6,7.6-2c3.9-2.6,6.2-7.3,7.9-11.3l13.1-30.5c2-4.6,3.1-5.3,6.2-5.3v-0.3H114.7z"/>
			<path d="M150.9,45.2V0l-12.1,3.5v0.2c2-0.6,6.1-1.8,6.1,2.2v10.9c-2.5-1.3-5.3-1.5-7.4-1.5c-11.5,0-21,7.5-21,19.4
				c0,8,4.9,15.7,14.8,16.9c4.6,0.6,9.5-0.8,13.5-4.5v3.9l12.1-3.5v-0.1C155,48,150.9,49.1,150.9,45.2z M144.8,46.3
				c-4.9,4.1-9,4.7-12.4,3.6c-6.2-2-9.3-9-9.3-16c0-8.7,4.7-17.8,14.5-17.8c2.2,0,5.1,0.4,7.3,1.6V46.3z"/>
			<path d="M176.4,15.2c-4.4,0-10.2,4.4-12.8,6.7v-5.7l-12.1,3.5v0.2c1.9-0.6,6-1.8,6,2.2v23.9c0,3.9-1.8,5.1-6,5.1v0.2h18.1v-0.3
				c-4.2,0-6-1.1-6-5V22.9c2-2,4.6-4.1,7.6-4.1c3.9-0.1,4.4,3.2,7.1,3.2c2,0,3.2-1.5,3.2-3.2C181.4,17,179.9,15.2,176.4,15.2z"/>
			<path d="M210.5,41.7c-1,2-2.2,3.5-3.4,4.8c-3.2,3.3-6.7,4.3-9.7,4.3c-7.4,0-12.1-5.4-14.2-11.9l24.3-14.4l1.6-1
				c0-1-0.3-2-0.7-2.8c-2.1-3.7-8.3-5.3-13.2-5.3c-12.7,0.1-19.2,9.1-19.2,18.2c0,11.4,8.8,18.3,19.9,18.3c4.4,0,8.6-1.5,11.8-4.7
				c1.4-1.4,2.6-3.1,3.5-5.2L210.5,41.7z M194.9,16.1c3.4,0,7.7,2,8,6.9c0.1,2-1,4-2.7,5l-17.1,10.2C180.4,28.3,184,16.1,194.9,16.1
				z"/>
			<path d="M232.6,23.6c0-0.7-0.1-1.3-0.3-1.8c-0.3,0.8-0.4,1.7-0.4,2.7c0,0.3,0,0.6,0,0.8C232.4,24.8,232.6,24.3,232.6,23.6z
				 M232,47.1c-1.3,3.1-6.9,4-9.5,4c-4.9,0-10-2.2-10-7.4c0-3.4-6.2-3.5-6.2,0c0,1,0.3,2,0.8,2.8c0.1,0.2,0.3,0.5,0.5,0.7
				c4.6,5.5,19.7,6.6,25.2,0.8C232.5,47.7,232.2,47.4,232,47.1z M208.4,20.6c-0.6,1.1-0.9,2.3-0.9,3.8l1.6-1
				C209.1,22.4,208.9,21.5,208.4,20.6z"/>
			<path d="M259.3,42.8c0,10.8-19.9,11.2-26.5,5.2c-0.3-0.3-0.6-0.6-0.8-0.9c0.2-0.4,0.3-0.9,0.3-1.4c0-1.2-0.5-2.3-1.3-3.2
				c-2.1-2.6-6.5-4.4-11-6.4c-6.2-2.8-12.5-5.9-12.5-11.7v0l1.6-1c0-1-0.3-2-0.7-2.8c4.1-8,21.5-6.4,24,1.1
				c-0.3,0.8-0.4,1.7-0.4,2.7c0,0.3,0,0.6,0,0.8c-1.6,1.7-5.5,1.1-5.5-1.7c0-10.2-15.9-8.9-15.9-2.3c0,4.3,5.6,6.2,11.3,8.8
				c5.8,2.8,11.9,5.3,12.8,11c1.2,0.3,2.2,1.1,2.2,2.5c0,5.2,5.1,7.4,10,7.4c2.9,0,9.8-1.2,9.8-5.4c0-4.4-6.1-6.9-12.3-9.6
				c-5.9-2.7-11.9-5.6-12.4-10.8c0.4-0.4,0.7-1,0.7-1.7c0-0.7-0.1-1.3-0.3-1.8c3.2-9.9,24.7-7.5,24.7,1.8c0,3.5-6.2,3.4-6.2,0
				c0-10.2-15.9-8.9-15.9-2.3c0,4.3,5.6,6.2,11.3,8.8C252.6,33.1,259.3,35.9,259.3,42.8z"/>
			<path d="M232.3,21.7c-0.3,0.8-0.4,1.7-0.4,2.7c0,0.3,0,0.6,0,0.8c0.4-0.4,0.7-1,0.7-1.7C232.6,22.9,232.5,22.3,232.3,21.7z"/>
		</g>
	</g>
	<g>
		<path d="M75.5,78.5v6.3c0,0.1,0,0.2,0,0.3l0,0.3c-0.1-0.2-0.2-0.3-0.3-0.5c-0.2-0.2-0.3-0.3-0.5-0.5c-0.2-0.1-0.5-0.2-0.7-0.3
			c-0.3-0.1-0.5-0.1-0.8-0.1c-0.4,0-0.8,0.1-1.2,0.2c-0.4,0.2-0.7,0.4-0.9,0.6c-0.3,0.3-0.5,0.6-0.6,0.9c-0.1,0.4-0.2,0.7-0.2,1.1
			c0,0.4,0.1,0.8,0.2,1.2c0.2,0.4,0.4,0.7,0.6,0.9c0.3,0.3,0.6,0.5,0.9,0.6c0.4,0.2,0.7,0.2,1.2,0.2c0.3,0,0.6,0,0.9-0.1
			c0.3-0.1,0.5-0.2,0.7-0.3c0.2-0.1,0.4-0.3,0.5-0.5c0.1-0.2,0.2-0.3,0.3-0.5v1.3h0.6V78.5H75.5z M75.4,87.9
			c-0.1,0.3-0.3,0.5-0.5,0.7c-0.2,0.2-0.5,0.4-0.7,0.5c-0.3,0.1-0.6,0.2-0.9,0.2c-0.3,0-0.6-0.1-0.9-0.2c-0.3-0.1-0.5-0.3-0.7-0.5
			c-0.2-0.2-0.4-0.5-0.5-0.7c-0.1-0.3-0.2-0.6-0.2-0.9c0-0.3,0.1-0.6,0.2-0.9c0.1-0.3,0.3-0.5,0.5-0.7c0.2-0.2,0.4-0.4,0.7-0.5
			c0.3-0.1,0.6-0.2,0.9-0.2c0.3,0,0.6,0.1,0.9,0.2c0.3,0.1,0.5,0.3,0.7,0.5c0.2,0.2,0.4,0.5,0.5,0.7c0.1,0.3,0.2,0.6,0.2,0.9
			C75.5,87.3,75.5,87.6,75.4,87.9z"/>
		<path d="M85.1,80.6c-0.2,0.3-0.5,0.7-0.7,1c-0.2,0.3-0.4,0.7-0.7,1h0.5c0.3-0.3,0.5-0.7,0.8-1c0.2-0.3,0.5-0.7,0.8-1H85.1z
			 M85.5,88.7c-0.2,0.2-0.4,0.4-0.7,0.5c-0.3,0.1-0.6,0.2-0.9,0.2c-0.5,0-0.9-0.1-1.3-0.4c-0.4-0.2-0.7-0.6-0.8-0.9
			c0.8-0.3,1.6-0.6,2.3-0.9c0.8-0.3,1.6-0.6,2.3-0.9c-0.1-0.3-0.2-0.6-0.4-0.8c-0.2-0.3-0.4-0.5-0.6-0.7c-0.2-0.2-0.5-0.3-0.7-0.4
			c-0.3-0.1-0.6-0.2-0.9-0.2c-0.4,0-0.8,0.1-1.2,0.2c-0.4,0.2-0.7,0.4-0.9,0.6c-0.3,0.3-0.5,0.6-0.6,0.9c-0.2,0.4-0.2,0.7-0.2,1.1
			c0,0.4,0.1,0.8,0.2,1.2c0.2,0.4,0.4,0.7,0.6,0.9c0.3,0.3,0.6,0.5,0.9,0.6c0.4,0.2,0.7,0.2,1.2,0.2c0.4,0,0.8-0.1,1.1-0.2
			s0.6-0.3,0.9-0.6c-0.1-0.1-0.1-0.2-0.2-0.2C85.6,88.8,85.5,88.7,85.5,88.7z M81.6,87.4c0-0.1,0-0.2,0-0.3c0-0.1,0-0.2,0-0.4
			c0-0.3,0.1-0.6,0.2-0.8c0.1-0.3,0.3-0.5,0.5-0.7c0.2-0.2,0.4-0.3,0.7-0.4c0.3-0.1,0.6-0.2,0.9-0.2c0.4,0,0.7,0.1,1.1,0.3
			c0.3,0.2,0.6,0.5,0.7,0.8c-0.7,0.3-1.4,0.5-2,0.8C82.9,86.9,82.3,87.1,81.6,87.4z"/>
		<path d="M96.9,85.8c-0.2-0.4-0.4-0.7-0.6-0.9c-0.3-0.3-0.6-0.5-0.9-0.6C95,84.1,94.6,84,94.2,84c-0.3,0-0.6,0-0.8,0.1
			c-0.3,0.1-0.5,0.2-0.7,0.3c-0.2,0.1-0.4,0.3-0.5,0.5c-0.1,0.2-0.3,0.3-0.3,0.5v-0.7c0-0.2,0-0.5,0-0.7h-0.5v9.4h0.6v-4.4
			c0-0.1,0-0.2,0-0.3c0-0.1,0-0.2,0-0.3c0.1,0.2,0.2,0.3,0.3,0.5c0.1,0.2,0.3,0.3,0.5,0.5c0.2,0.1,0.4,0.2,0.7,0.3
			c0.3,0.1,0.6,0.1,0.9,0.1c0.4,0,0.8-0.1,1.2-0.2c0.4-0.2,0.7-0.4,0.9-0.6c0.3-0.3,0.5-0.6,0.6-0.9c0.2-0.4,0.2-0.7,0.2-1.1
			S97.1,86.2,96.9,85.8z M96.3,87.9c-0.1,0.3-0.3,0.5-0.5,0.7c-0.2,0.2-0.5,0.4-0.7,0.5c-0.3,0.1-0.6,0.2-0.9,0.2
			c-0.3,0-0.6-0.1-0.9-0.2c-0.3-0.1-0.5-0.3-0.7-0.5c-0.2-0.2-0.4-0.5-0.5-0.7c-0.1-0.3-0.2-0.6-0.2-0.9c0-0.3,0.1-0.6,0.2-0.9
			c0.1-0.3,0.3-0.5,0.5-0.7c0.2-0.2,0.5-0.4,0.7-0.5c0.3-0.1,0.6-0.2,0.9-0.2c0.3,0,0.6,0.1,0.9,0.2c0.3,0.1,0.5,0.3,0.7,0.5
			c0.2,0.2,0.4,0.5,0.5,0.7c0.1,0.3,0.2,0.6,0.2,0.9C96.5,87.3,96.5,87.6,96.3,87.9z"/>
		<path d="M107.4,85.8c-0.1-0.4-0.4-0.7-0.6-0.9c-0.3-0.3-0.6-0.5-1-0.6c-0.4-0.2-0.7-0.2-1.2-0.2c-0.4,0-0.8,0.1-1.2,0.2
			c-0.4,0.2-0.7,0.4-0.9,0.6c-0.3,0.3-0.5,0.6-0.6,0.9c-0.2,0.4-0.2,0.7-0.2,1.1c0,0.4,0.1,0.8,0.2,1.2c0.2,0.4,0.4,0.7,0.6,0.9
			c0.3,0.3,0.6,0.5,0.9,0.6c0.4,0.2,0.7,0.2,1.2,0.2c0.4,0,0.8-0.1,1.2-0.2c0.4-0.2,0.7-0.4,1-0.6c0.3-0.3,0.5-0.6,0.6-0.9
			c0.2-0.4,0.2-0.7,0.2-1.2C107.6,86.6,107.6,86.2,107.4,85.8z M106.8,87.9c-0.1,0.3-0.3,0.5-0.5,0.7c-0.2,0.2-0.5,0.4-0.7,0.5
			c-0.3,0.1-0.6,0.2-0.9,0.2c-0.3,0-0.6-0.1-0.9-0.2c-0.3-0.1-0.5-0.3-0.7-0.5c-0.2-0.2-0.4-0.5-0.5-0.7c-0.1-0.3-0.2-0.6-0.2-0.9
			c0-0.3,0.1-0.6,0.2-0.9c0.1-0.3,0.3-0.5,0.5-0.7c0.2-0.2,0.5-0.4,0.7-0.5c0.3-0.1,0.6-0.2,0.9-0.2c0.3,0,0.6,0.1,0.9,0.2
			c0.3,0.1,0.5,0.3,0.7,0.5c0.2,0.2,0.4,0.5,0.5,0.7c0.1,0.3,0.2,0.6,0.2,0.9C107,87.3,106.9,87.6,106.8,87.9z"/>
		<path d="M113.8,84.1v-3.7h-0.6v3.7h-1.3v0.6h1.3v5h0.6v-5h1.7v-0.6H113.8z"/>
		<path d="M120.3,88.9c-0.1-0.1-0.2-0.1-0.3-0.1c-0.1,0-0.2,0-0.4,0.1c-0.1,0.1-0.1,0.2-0.1,0.4c0,0.1,0,0.3,0.1,0.4
			c0.1,0.1,0.2,0.1,0.4,0.1c0.1,0,0.2,0,0.3-0.1c0.1-0.1,0.1-0.2,0.1-0.4C120.4,89.2,120.4,89,120.3,88.9z"/>
		<path d="M125.2,78.5v11.3h0.6V78.5H125.2z"/>
		<path d="M136.2,85.8c-0.1-0.4-0.4-0.7-0.6-0.9c-0.3-0.3-0.6-0.5-1-0.6c-0.4-0.2-0.7-0.2-1.2-0.2c-0.4,0-0.8,0.1-1.2,0.2
			c-0.4,0.2-0.7,0.4-0.9,0.6c-0.3,0.3-0.5,0.6-0.6,0.9c-0.2,0.4-0.2,0.7-0.2,1.1c0,0.4,0.1,0.8,0.2,1.2c0.2,0.4,0.4,0.7,0.6,0.9
			c0.3,0.3,0.6,0.5,0.9,0.6c0.4,0.2,0.7,0.2,1.2,0.2c0.4,0,0.8-0.1,1.2-0.2c0.4-0.2,0.7-0.4,1-0.6c0.3-0.3,0.5-0.6,0.6-0.9
			c0.2-0.4,0.2-0.7,0.2-1.2C136.5,86.6,136.4,86.2,136.2,85.8z M135.6,87.9c-0.1,0.3-0.3,0.5-0.5,0.7c-0.2,0.2-0.5,0.4-0.7,0.5
			c-0.3,0.1-0.6,0.2-0.9,0.2c-0.3,0-0.6-0.1-0.9-0.2c-0.3-0.1-0.5-0.3-0.7-0.5c-0.2-0.2-0.4-0.5-0.5-0.7c-0.1-0.3-0.2-0.6-0.2-0.9
			c0-0.3,0.1-0.6,0.2-0.9c0.1-0.3,0.3-0.5,0.5-0.7c0.2-0.2,0.5-0.4,0.7-0.5c0.3-0.1,0.6-0.2,0.9-0.2c0.3,0,0.6,0.1,0.9,0.2
			c0.3,0.1,0.5,0.3,0.7,0.5c0.2,0.2,0.4,0.5,0.5,0.7c0.1,0.3,0.2,0.6,0.2,0.9C135.8,87.3,135.7,87.6,135.6,87.9z"/>
		<path d="M144.8,88.8c-0.4,0.3-0.9,0.5-1.5,0.5c-0.3,0-0.6-0.1-0.9-0.2c-0.3-0.1-0.5-0.3-0.7-0.5c-0.2-0.2-0.4-0.5-0.5-0.7
			c-0.1-0.3-0.2-0.6-0.2-0.9c0-0.3,0.1-0.6,0.2-0.9c0.1-0.3,0.3-0.5,0.5-0.7c0.2-0.2,0.4-0.4,0.7-0.5c0.3-0.1,0.6-0.2,0.9-0.2
			c0.3,0,0.6,0,0.8,0.1s0.5,0.2,0.7,0.4c0.1-0.1,0.1-0.2,0.2-0.2c0.1-0.1,0.1-0.2,0.2-0.2c-0.3-0.2-0.5-0.4-0.9-0.5
			c-0.3-0.1-0.7-0.2-1-0.2c-0.4,0-0.8,0.1-1.2,0.2c-0.4,0.2-0.7,0.4-0.9,0.6c-0.3,0.3-0.5,0.6-0.6,0.9c-0.2,0.4-0.2,0.7-0.2,1.1
			c0,0.4,0.1,0.8,0.2,1.2c0.2,0.4,0.4,0.7,0.6,0.9c0.3,0.3,0.6,0.5,0.9,0.6c0.4,0.2,0.7,0.2,1.2,0.2c0.4,0,0.7-0.1,1-0.2
			c0.3-0.1,0.6-0.3,0.9-0.5c-0.1-0.1-0.1-0.2-0.2-0.2C145,88.9,144.9,88.9,144.8,88.8z"/>
		<path d="M154.9,84.1c0,0.2,0,0.4,0,0.7c0,0.2,0,0.4,0,0.7c-0.1-0.2-0.2-0.3-0.3-0.5c-0.1-0.2-0.3-0.3-0.5-0.5
			c-0.2-0.1-0.5-0.2-0.7-0.3c-0.3-0.1-0.5-0.1-0.8-0.1c-0.4,0-0.8,0.1-1.2,0.2c-0.4,0.2-0.7,0.4-0.9,0.6c-0.3,0.3-0.5,0.6-0.6,0.9
			c-0.2,0.4-0.2,0.7-0.2,1.1c0,0.4,0.1,0.8,0.2,1.2c0.2,0.4,0.4,0.7,0.6,0.9c0.3,0.3,0.6,0.5,0.9,0.6c0.4,0.2,0.8,0.2,1.2,0.2
			c0.3,0,0.6,0,0.9-0.1c0.3-0.1,0.5-0.2,0.7-0.3c0.2-0.1,0.4-0.3,0.5-0.5c0.1-0.2,0.2-0.3,0.3-0.5c0,0.1,0,0.2,0,0.3v1h0.6v-5.7
			H154.9z M154.5,87.9c-0.1,0.3-0.3,0.5-0.5,0.7c-0.2,0.2-0.5,0.4-0.7,0.5c-0.3,0.1-0.6,0.2-0.9,0.2c-0.3,0-0.6-0.1-0.9-0.2
			c-0.3-0.1-0.5-0.3-0.7-0.5c-0.2-0.2-0.4-0.5-0.5-0.7c-0.1-0.3-0.2-0.6-0.2-0.9c0-0.3,0.1-0.6,0.2-0.9c0.1-0.3,0.3-0.5,0.5-0.7
			c0.2-0.2,0.5-0.4,0.7-0.5c0.3-0.1,0.6-0.2,0.9-0.2c0.3,0,0.6,0.1,0.9,0.2c0.3,0.1,0.5,0.3,0.7,0.5c0.2,0.2,0.4,0.5,0.5,0.7
			c0.1,0.3,0.2,0.6,0.2,0.9C154.7,87.3,154.7,87.6,154.5,87.9z"/>
		<path d="M161.8,84.1v-3.7h-0.6v3.7h-1.3v0.6h1.3v5h0.6v-5h1.7v-0.6H161.8z"/>
		<path d="M167.8,84.1v5.7h0.6v-5.7H167.8z M168.4,81.8c-0.1-0.1-0.2-0.1-0.3-0.1c-0.1,0-0.2,0-0.3,0.1c-0.1,0.1-0.2,0.2-0.2,0.4
			c0,0.1,0.1,0.3,0.2,0.4c0.1,0.1,0.2,0.1,0.3,0.1c0.1,0,0.2,0,0.3-0.1c0.1-0.1,0.2-0.2,0.2-0.4C168.6,82,168.5,81.9,168.4,81.8z"/>
		<path d="M178.7,85.8c-0.1-0.4-0.4-0.7-0.6-0.9c-0.3-0.3-0.6-0.5-1-0.6c-0.4-0.2-0.7-0.2-1.2-0.2c-0.4,0-0.8,0.1-1.2,0.2
			c-0.4,0.2-0.7,0.4-0.9,0.6c-0.3,0.3-0.5,0.6-0.6,0.9c-0.2,0.4-0.2,0.7-0.2,1.1c0,0.4,0.1,0.8,0.2,1.2c0.2,0.4,0.4,0.7,0.6,0.9
			c0.3,0.3,0.6,0.5,0.9,0.6c0.4,0.2,0.7,0.2,1.2,0.2c0.4,0,0.8-0.1,1.2-0.2c0.4-0.2,0.7-0.4,1-0.6c0.3-0.3,0.5-0.6,0.6-0.9
			c0.2-0.4,0.2-0.7,0.2-1.2C179,86.6,178.9,86.2,178.7,85.8z M178.1,87.9c-0.1,0.3-0.3,0.5-0.5,0.7c-0.2,0.2-0.5,0.4-0.7,0.5
			c-0.3,0.1-0.6,0.2-0.9,0.2c-0.3,0-0.6-0.1-0.9-0.2c-0.3-0.1-0.5-0.3-0.7-0.5c-0.2-0.2-0.4-0.5-0.5-0.7c-0.1-0.3-0.2-0.6-0.2-0.9
			c0-0.3,0.1-0.6,0.2-0.9c0.1-0.3,0.3-0.5,0.5-0.7c0.2-0.2,0.5-0.4,0.7-0.5c0.3-0.1,0.6-0.2,0.9-0.2c0.3,0,0.6,0.1,0.9,0.2
			c0.3,0.1,0.5,0.3,0.7,0.5c0.2,0.2,0.4,0.5,0.5,0.7c0.1,0.3,0.2,0.6,0.2,0.9C178.3,87.3,178.3,87.6,178.1,87.9z"/>
		<path d="M188.6,84.5c-0.3-0.3-0.8-0.5-1.3-0.5c-0.6,0-1.1,0.1-1.5,0.4c-0.4,0.3-0.8,0.7-1,1.1c0-0.2,0-0.3,0-0.5v-1h-0.6v5.7h0.6
			v-3.1c0-0.3,0.1-0.6,0.2-0.8c0.1-0.2,0.3-0.5,0.5-0.7c0.2-0.2,0.5-0.3,0.7-0.4c0.3-0.1,0.6-0.2,0.9-0.2c0.4,0,0.7,0.1,1,0.4
			c0.2,0.2,0.3,0.5,0.4,0.8v3.9h0.6v-4.1C189.1,85.2,188.9,84.8,188.6,84.5z"/>
	</g>
</g>
</svg>
